<?xml version="1.0" standalone="no"?>
<!DOCTYPE svg PUBLIC "-//W3C//DTD SVG 20010904//EN" "http://www.w3.org/TR/2001/REC-SVG-20010904/DTD/svg10.dtd">
<!-- Created using Krita: https://krita.org -->
<svg xmlns="http://www.w3.org/2000/svg" 
    xmlns:xlink="http://www.w3.org/1999/xlink"
    xmlns:krita="http://krita.org/namespaces/svg/krita"
    xmlns:sodipodi="http://sodipodi.sourceforge.net/DTD/sodipodi-0.dtd"
    width="1074.24pt"
    height="1074.24pt"
    viewBox="0 0 1074.24 1074.24">
<defs/>
<g id="group0" transform="matrix(1.00000002727219 0 0 1.00000002727219 0.752052205968747 -0.00313064608224144)" fill="none">
  <path id="shape0" transform="matrix(-0.0999999946600915 0 0 -0.0999999946600915 883.607900590526 1073.8899438305)" fill="#2e2b30" stroke="#747785" stroke-width="1" stroke-linecap="square" stroke-linejoin="bevel" d="M3322 10681.9C3444 10575.9 3778 10233.9 3886 10103.9C4712 9109.87 5151 7905.87 5152 6638.87C5152 5491.87 4768 4343.87 4077 3423.87C3782 3030.87 3394 2644.87 3002 2350.87C2202 1751.87 1211 1374.87 242 1298.87C162 1292.87 75 1284.87 49 1280.87L0 1273.87L114 1182.87C1158 348.868 2472 -71.1317 3785 9.86831C5519 115.868 7089 1042.87 8012 2503.87C8359 3052.87 8611 3680.87 8736 4308.87C8812 4689.87 8835 4926.87 8836 5348.87C8837 5711.87 8829 5836.87 8787 6128.87C8601 7412.87 7970 8570.87 6992 9423.87C6019 10273.9 4766 10738.9 3457 10738.9L3257 10737.9Z" sodipodi:nodetypes="cccccccccccccccccc"/>
  <path id="shape1" transform="matrix(-0.0999999946600915 0 0 -0.0999999946600915 839.824408444726 238.784690299237)" fill="#f1c68c" stroke-opacity="0" stroke="#000000" stroke-width="0" stroke-linecap="square" stroke-linejoin="bevel" d="M467.115 888.653C405.115 772.653 369.115 716.653 358.115 716.653C319.115 715.653 4.11512 678.653 0.115124 673.653C-2.88488 670.653 53.1151 607.653 125.115 532.653C197.115 457.653 256.115 393.653 256.115 389.653C255.115 384.653 238.115 299.653 217.115 199.653C196.115 98.6527 180.115 16.6527 182.115 16.6527C185.115 16.6527 261.115 52.6527 353.115 96.6527C444.115 140.653 524.115 176.653 530.115 176.653C536.115 176.653 614.115 133.653 704.115 82.6527C793.115 30.6527 866.115 -5.34734 866.115 0.652661C866.115 7.65266 855.115 93.6527 841.115 192.653C827.115 290.653 816.115 372.653 816.115 373.653C816.115 374.653 880.115 432.653 957.115 502.653C1076.12 610.653 1096.12 631.653 1080.12 638.653C1069.12 642.653 985.115 659.653 892.115 676.653C799.115 692.653 722.115 707.653 721.115 708.653C720.115 710.653 688.115 779.653 651.115 861.653C614.115 944.653 578.115 1022.65 571.115 1035.65C559.115 1058.65 554.115 1050.65 467.115 888.653Z" sodipodi:nodetypes="cccccccccccccccccccc"/>
  <path id="shape2" transform="matrix(-0.0999999946600915 0 0 -0.0999999946600915 1071.69388350758 388.925513690009)" fill="#60dadf" stroke-opacity="0" stroke="#000000" stroke-width="0" stroke-linecap="square" stroke-linejoin="bevel" d="M599.05 1078C525.05 976 462.05 888 459.05 884C456.05 879 352.05 908 229.05 948C105.05 988 2.05022 1020 0.0502148 1018C-1.94978 1016 56.0502 933 128.05 834C201.05 734 263.05 646 266.05 639C269.05 631 214.05 547 142.05 447C71.0502 349 9.05022 263 4.05022 255C-4.94978 239 -18.9498 235 241.05 320C350.05 355 443.05 384 447.05 384C452.05 384 518.05 298 595.05 192L734.05 0L737.05 241L739.05 481L964.05 554C1087.05 595 1186.05 630 1183.05 633C1180.05 636 1080.05 671 961.05 709L744.05 780L739.05 1022L734.05 1264Z" sodipodi:nodetypes="ccccccccccccccccccccc"/>
  <path id="shape3" transform="matrix(-0.0999999946600915 0 0 -0.0999999946600915 789.840216498871 679.581513973451)" fill="#deca7e" stroke-opacity="0" stroke="#000000" stroke-width="0" stroke-linecap="square" stroke-linejoin="bevel" d="M1022.01 1721C896.007 1564 789.007 1431 785.007 1425C779.007 1415 691.007 1446 217.007 1627C132.007 1659 61.007 1684 59.007 1683C58.007 1682 84.007 1638 118.007 1587C195.007 1471 460.007 1067 470.007 1051C474.007 1044 380.007 919.002 237.007 742.002C106.007 578.002 -0.993047 443.002 0.0069528 441.002C2.00695 440.002 168.007 484.002 371.007 540.002C593.007 600.002 742.007 637.002 746.007 631.002C906.007 384.002 1161.01 -0.998056 1163.01 0.00194415C1164.01 2.00194 1173.01 174.002 1183.01 383.002C1192.01 592.002 1201.01 764.002 1201.01 765.002C1202.01 766.002 1362.01 810.002 1557.01 863.002C1752.01 917.002 1918.01 963.002 1925.01 967.002C1933.01 972.002 1878.01 997.002 1785.01 1032C1701.01 1064 1542.01 1124 1432.01 1166C1322.01 1207 1230.01 1243 1228.01 1244C1226.01 1246 1232.01 1411 1242.01 1610C1251.01 1810 1258.01 1981 1256.01 1990C1253.01 2001 1170.01 1904 1022.01 1721Z" sodipodi:nodetypes="ccccccccccccccccccccc"/>
 </g><g id="group0" transform="translate(10.4403222567114, 732.250241743836)" fill="none">
  <path id="shape0" transform="matrix(1.9672131147541 0 0 1.96595744680851 -2.1316282072803e-14 0)" fill="#000000" stroke-opacity="0" stroke="#000000" stroke-width="0" stroke-linecap="square" stroke-linejoin="bevel" d="M138.355 166.91C135.037 168.36 131.952 168.718 128.736 168.714C95.4103 168.667 62.0845 168.72 28.7588 168.667C11.0005 168.639 -1.75672 152.085 0.19767 134.644C1.28699 124.922 4.0367 116.619 8.66051 108.298C11.7604 102.72 14.3383 96.6099 13.6816 89.7778C13.4989 87.8769 14.9671 86.4158 15.9664 84.8844C20.0153 78.6797 23.8294 71.9437 23.9888 64.6872C24.1363 57.9699 27.1641 53.5636 30.4096 48.3646C34.3905 41.9874 37.8067 34.9148 36.2927 26.7385C36.1092 25.7472 36.646 24.2913 37.3573 23.5191C41.9891 18.4917 44.0662 12.0744 47.0873 6.16956C49.2657 1.91173 52.6982 -0.0135502 57.5941 7.17602e-05C87.7516 0.0840148 117.91 0.0129958 148.067 0.0232158C161.313 0.0277058 168.173 8.725 164.396 21.413C154.239 55.5327 143.81 89.5715 133.463 123.635C132.884 125.541 132.04 127.366 131.365 129.246C128.442 137.384 122.54 140.744 114.045 140.714C84.3858 140.608 54.7256 140.686 25.0657 140.694C23.8993 140.694 22.7278 140.627 21.5674 140.711C18.5524 140.929 14.4306 139.733 13.6564 143.941C12.8361 148.399 16.1914 150.996 20.0096 152.336C23.6154 153.6 27.4643 154.008 31.3158 154.008C62.9753 154.01 94.6348 154.025 126.294 153.999C134.935 153.992 137.867 151.889 140.401 143.585C150.698 109.847 160.886 76.0768 171.23 42.354C172.039 39.7159 171.405 36.624 173.518 34.4142C180.58 35.0859 184.342 45.2077 181.786 53.5244C175.823 72.9255 170.019 92.3753 164.137 111.801C160.232 124.698 156.27 137.577 152.401 150.484C150.177 157.906 145.892 163.522 138.355 166.91M82.4336 46.8523C82.4793 50.8494 82.4579 54.8489 82.6003 58.8425C82.6665 60.7016 81.8578 63.1351 84.6235 63.8286C86.9927 64.4227 88.2333 62.7643 89.4032 61.0311C95.1774 52.4768 100.952 43.9223 106.824 35.4348C107.765 34.0737 108.177 31.888 111.117 32.0492C107.43 42.4693 103.781 52.7088 100.943 63.2536C104.837 65.16 105.861 62.6521 106.719 59.9873C109.782 50.4824 112.856 40.9805 115.827 31.4465C116.445 29.4619 117.727 27.528 116.976 25.2461C112.412 23.6529 109.494 25.3187 106.982 29.2431C102.047 36.9514 96.7618 44.4377 91.5253 51.9489C90.595 53.2834 90.177 55.55 87.6935 55.091C86.7229 53.4804 87.0693 51.7745 87.0376 50.1426C86.9047 43.3152 86.9217 36.4836 86.6921 29.66C86.6153 27.3798 86.4317 24.8582 83.0543 24.718C80.1731 24.5984 78.0736 24.9082 77.0472 28.3598C74.0118 38.567 70.5608 48.65 67.3661 58.8111C66.871 60.3857 65.2421 62.5916 67.688 63.6059C70.4284 64.7423 70.9503 62.0756 71.5388 60.256C74.0479 52.4983 76.4184 44.6957 78.9408 36.9425C79.4445 35.394 79.3806 33.4047 81.5123 32.1801C82.9499 36.9626 82.0436 41.4606 82.4336 46.8523M79.4818 112.216C87.4411 109.203 92.7496 103.559 95.8769 95.734C99.6962 86.1779 95.6014 78.7208 85.6041 76.6258C79.1526 75.2739 72.6669 75.8533 66.1889 75.705C64.0192 75.6553 62.9017 76.6777 62.2589 78.7315C58.8772 89.5365 55.4087 100.314 51.9503 111.095C51.1661 113.54 51.6838 114.967 54.5594 115.007C62.7252 115.12 70.8829 115.227 79.4818 112.216Z" sodipodi:nodetypes="cccccccccccccccccccccccccccccccccccccccccccccccccccccccccccccc"/>
  <path id="shape1" transform="matrix(1.9672131147541 0 0 1.96595744680851 118.152195752658 157.233762456786)" fill="#000000" stroke-opacity="0" stroke="#000000" stroke-width="0" stroke-linecap="square" stroke-linejoin="bevel" d="M16.069 28.7335C11.6659 29.9984 7.59522 30.705 3.38795 30.5755C0.504936 30.4868 -0.590737 29.1887 0.304001 26.4141C2.80847 18.6481 5.32682 10.8864 7.89224 3.14034C8.14133 2.38826 8.6091 1.35597 9.22274 1.13224C14.8674 -0.925803 20.4172 -0.0132357 25.5966 2.541C29.9868 4.70606 29.9921 8.94988 29.128 13.0215C27.5791 20.3191 23.531 25.7399 16.069 28.7335Z" sodipodi:nodetypes="cccccccc"/>
 </g>
</svg>
